{"payload":{"content":[{"variant_status":"Active","sku":"085800","eg_sku":"085800","variant_id":"5a61fba7ae8bdc45bd9f9b93","name":"Glycomet gp2 forte tab","classification_code":"HD","salts":[{"id":"5a61a2c8ae8bdc26685f304e","name":"Glimepiride","dosage":0.0,"unit":"","classification":"HD","consumption_per_day":1.6,"diseases":null,"refill_index":1.0,"molecule_types":null,"is_full_course":null,"is_tele_consult":true,"max_order_quantity":100,"bulk_order_quantity":150,"cold_storage":false},{"id":"5a61a2abae8bdc26685f2d23","name":"Metformin","dosage":0.0,"unit":"","classification":"HD","consumption_per_day":1.6,"diseases":null,"refill_index":1.0,"molecule_types":null,"is_full_course":null,"is_tele_consult":true,"max_order_quantity":100,"bulk_order_quantity":150,"cold_storage":false}],"brand_distribution":"Corvette ","classification":"Scheduled H Drugs","pack_type":"TABLET","pack_size":{"unit":"S","name":"10S","value":10},"drug_strength":{},"eg_product_name":"Glycomet gp2 forte tab","comment":"","images":[],"drug_type":"HD","consumption_per_day":1.6,"variant_reason":"","drug_category":"DRUGS","status":"Active","rack_details":"JEG44","brand_name":"Usv Limited","type":"TABLET","per_pack_qty":10.0,"no_of_days_stock":0.0,"brand":"Usv Limited","generic_name":"Glycomet gp2 forte tab","created_at":1516370856000,"updated_at":1518500913000,"created_by":{"id":0,"first_name":null,"last_name":null,"full_name":"null"},"updated_by":{"id":0,"first_name":null,"last_name":null,"full_name":"null"},"available_delivery_option":"NORMAL","available_service_type":"NORMAL","max_order_quantity":100,"bulk_order_quantity":150,"refill_index":1.0,"diseases":["Diabetes"],"molecule_types":["Antidiabetic Agents"],"id":"5a61fba8ae8bdc45bd9f9b95","facility_id":100,"selling_price":70.975,"mrp":83.5,"discount":15.0,"location_code":"100","location":"JAIPUR","quantity":0,"stock":0,"available":true,"discontinue":false,"retired":false,"tele_consult":true,"urgent_dl_available":true,"lc_assured_available":true,"verified":true,"cold_storage":false,"is_cold_storage":false,"packaging_type":"Box","is_lc_assured_available":true,"is_urgent_dl_available":true},{"variant_status":"Active","sku":"085800","eg_sku":"085800","variant_id":"5a61fba7ae8bdc45bd9f9b93","name":"Glycomet gp2 forte tab","classification_code":"HD","salts":[{"id":"5a61a2c8ae8bdc26685f304e","name":"Glimepiride","dosage":0.0,"unit":"","classification":"HD","consumption_per_day":1.6,"diseases":null,"refill_index":1.0,"molecule_types":null,"is_full_course":null,"is_tele_consult":true,"max_order_quantity":100,"bulk_order_quantity":150,"cold_storage":false},{"id":"5a61a2abae8bdc26685f2d23","name":"Metformin","dosage":0.0,"unit":"","classification":"HD","consumption_per_day":1.6,"diseases":null,"refill_index":1.0,"molecule_types":null,"is_full_course":null,"is_tele_consult":true,"max_order_quantity":100,"bulk_order_quantity":150,"cold_storage":false}],"brand_distribution":"Corvette ","classification":"Scheduled H Drugs","pack_type":"TABLET","pack_size":{"unit":"S","name":"10S","value":10},"drug_strength":{},"eg_product_name":"Glycomet gp2 forte tab","comment":"","images":[],"drug_type":"HD","consumption_per_day":1.6,"variant_reason":"","drug_category":"DRUGS","status":"Active","rack_details":"DGD22","brand_name":"Usv Limited","type":"TABLET","per_pack_qty":10.0,"no_of_days_stock":0.0,"brand":"Usv Limited","generic_name":"Glycomet gp2 forte tab","created_at":1516370856000,"updated_at":1518503976000,"created_by":{"id":0,"first_name":null,"last_name":null,"full_name":"null"},"updated_by":{"id":0,"first_name":null,"last_name":null,"full_name":"null"},"available_delivery_option":"NORMAL","available_service_type":"NORMAL","max_order_quantity":100,"bulk_order_quantity":150,"refill_index":1.0,"diseases":["Diabetes"],"molecule_types":["Antidiabetic Agents"],"id":"5a61fba8ae8bdc45bd9f9b94","facility_id":101,"selling_price":70.975,"mrp":83.5,"discount":15.0,"location_code":"101","location":"DELHI","quantity":0,"stock":0,"available":true,"discontinue":false,"retired":false,"tele_consult":true,"urgent_dl_available":true,"lc_assured_available":true,"verified":true,"cold_storage":false,"is_cold_storage":false,"packaging_type":"Box","is_lc_assured_available":true,"is_urgent_dl_available":true},{"variant_status":"Active","sku":"085775","eg_sku":"085775","variant_id":"5a61fbcdae8bdc45bd9f9c6b","name":"Glycomet 500mg tab","classification_code":"HD","salts":[{"id":"5a61a2abae8bdc26685f2d23","name":"Metformin","dosage":0.0,"unit":"","classification":"HD","consumption_per_day":1.6,"diseases":null,"refill_index":1.0,"molecule_types":null,"is_full_course":null,"is_tele_consult":true,"max_order_quantity":100,"bulk_order_quantity":150,"cold_storage":false}],"brand_distribution":"Condor ","classification":"Scheduled H Drugs","pack_type":"TABLET","pack_size":{"unit":"S","name":"10S","value":10},"drug_strength":{},"eg_product_name":"Glycomet 500mg tab","comment":"","images":[],"drug_type":"HD","consumption_per_day":1.59,"variant_reason":"","drug_category":"DRUGS","status":"Active","rack_details":"DGD22","brand_name":"Usv Limited","type":"TABLET","per_pack_qty":10.0,"no_of_days_stock":0.0,"brand":"Usv Limited","generic_name":"Glycomet 500mg tab","created_at":1516370893000,"updated_at":1518491966000,"created_by":{"id":0,"first_name":null,"last_name":null,"full_name":"null"},"updated_by":{"id":0,"first_name":null,"last_name":null,"full_name":"null"},"available_delivery_option":"NORMAL","available_service_type":"NORMAL","max_order_quantity":100,"bulk_order_quantity":150,"refill_index":1.0,"diseases":["Diabetes"],"molecule_types":["Antidiabetic Agents"],"id":"5a61fbcdae8bdc45bd9f9c6c","facility_id":101,"selling_price":12.9455,"mrp":15.23,"discount":15.0,"location_code":"101","location":"DELHI","quantity":0,"stock":0,"available":true,"discontinue":false,"retired":false,"tele_consult":true,"urgent_dl_available":true,"lc_assured_available":true,"verified":true,"cold_storage":false,"is_cold_storage":false,"packaging_type":"Box","is_lc_assured_available":true,"is_urgent_dl_available":true}],"facets":[],"aggregations":{"asMap":{}},"totalElements":74,"totalPages":25,"first":true,"last":false,"size":3,"number":0,"sort":null,"numberOfElements":3},"timestamp":1531123120333}
